1  ping yahoo.com
 2  ifconfig
 3  ping yahoo.com
 4  ipconfig
 5  ifconfig
 6  apt install apache2
 7  sudo apt install apache2
 8  sudo su
 9  pwd
10  # great news
11  # here is the server that needs the static wireless IP
12  # please make this 10.0.0.53 as the static wireless IP
13  # can you do that please working here ?
14  sudo su
15  ifconfig
16  ping yahoo.com
17  hostname
18  suto apt-get update && sudo apt-get upgrade
19  sudo apt-get update && sudo apt-get upgrade
20  sudo apt-get install apache2 apache2-doc apache2-utils
21  ifconfig
22  cd /etc
23  cd ssh
24  ls
25  cp ssh_config ssh_config.factory-defaults
26  sudo cp ssh_config ssh_config.factory-defaults
27  vi ssh_config
28  chmod a-w ssh_config.factory-defaults
29  sudo restart ssh
30  sudo systemctl restart ssh
31  sudo apt-get install openssh-server
32  ping 10.0.0.53
33  ifconfig
34  reboot now
35  sudo reboot now
36  ifconfig
37  cd /etc
38  sudo su
39  auto wls3 iface wlan0 inet static
40  auto wls3 iface wls3 inet static
41  clear
42  auto wls3 iface wls3 inet static
43  pwd
44  cd /etc/networks
45  cd /etc/network
46  vi interfaces
47  sudo su
48  sudo apt-get update
49  vi /etc/resolv.conf
50  sudo su
51  cd /usr
52  ls
53  cd /bin
54  ls
55  cd www
56  find / -name index.html
57  sudo find / -name index.html
58  cd /var/wwww
59  cd /var/www
60  ls
61  cd html
62  ls
63  cat index.html
64  git clone https://github.com/ejbest/ejs.git
65  sudo apt install git
66  ls -latr
67  cat index.html
68  ls
69  ls default/
70  ls
71  git clone https://github.com/ejbest/ejs.git
72  cd ..
73  chown ej:ej html
74  sudo chown ej:ej html
75  cd html
76  git clone https://github.com/ejbest/ejs.git
77  cat index.html
78  ls
79  cd ejs/
80  ls
81  mv * ../
82  ls
83  cd ..
84  rmdir ejs
85  ls ejs
86  sudo rm -Rf ejs/
87  ls
88  pwd
89  find / -name index.html
90  ls
91  cd /var
92  ls
93  cd www
94  ls
95  cd html
96  ls
97  history
98  git clone https://github.com/ejbest/ejs.git
99  ls -latr
100  cd ejs/
101  mv * ../
102  cd /var/www
103  ls
104  pwd
105  ls
106  cd html
107  ls
108  git status
109  git clone https://github.com/ejbest/ejs.git
110  ls ejs
111  rm -Rf ejs
112  git clone https://github.com/ejbest/ejs.git
113  ls
114  sudo * ../
115  ls
116  pwd
117  cd ..
118  ls
119  cd html
120  ls
121  cd ejs
122  ls
123  sudo mv * ../
124  sudo mv -Rf * ../
125  sudo mv -f * ../
126  sudo mv - * ../
127  sudo mv -rf * ../
128  ls
129  cd ..
130  ls
131  bash start_mac_django.sh
132  sudo su
133  pwd
134  cd /vol1/dockerMySql/
135  docker ps
136  sudo su
137  cd /
138  ls
139  cd mnt
140  ls
141  cd /vol1/ejs
142  cd /var/www
143  ls
144  cd html
145  history | grep git
146  git clone https://github.com/ejbest/ejs.git --bar
147  ls
148  ls -lagr
149  ls -latr
150  cd /
151  cd /tmp
152  mkdir test
153  cd test
154  git clone https://github.com/ejbest/ejs.git --bar
155  ls
156  ls ejs
157  git clone https://github.com/ejbest/ejs.git --seperate-git-dir=/tmp/test
158  git clone --seperate-git-dir=/tmp/test https://github.com/ejbest/ejs.git
159  git clone https://github.com/ejbest/ejs.git --seperate-git-dir=/tmp/test
160  git clone https://github.com/ejbest/ejs.git /tmp/test
161  git clone https://github.com/ejbest/ejs.git /tmp/test --dissociate
162  history git clone
163  history | grep git
164  ls
165  touch file
166  ls /var/www.html
167  ls /var/www/html
168  git clone https://github.com/ejbest/ejs.git
169  ls
170  cp ejs/* .
171  cp -R ejs/* .
172  cdd..
173  cd ..
174  git clone https://github.com/ejbest/ejs.git test-pull && cd test-pull && cp ejs/* ../
175  ls -latr
176  git clone https://github.com/ejbest/ejs.git test-pull && cd test && cp ejs/* ../
177  git clone https://github.com/ejbest/ejs.git test && cd test && cp ejs/* ../
178  ls
179  cd ..
180  ls
181  cd ../test
182  ls
183  cd ..
184  git clone https://github.com/ejbest/ejs.git test && cd test && cp ejs/* ../
185  cd test
186  ls
187  git clone https://github.com/ejbest/ejs.git
188  mkdir junk
189  cd junk/
190  git clone https://github.com/ejbest/ejs.git
191  cd ..
192  git clone https://github.com/ejbest/ejs.git ejs-pull &&  cp -R ./ejs-pull/*  ./ && rm -rf ejs-pull
193  ls -latr
194  cd ..
195  mkdir test1
196  cd test1
197  touch test
198  touch test1
199  touch test2
200  ls -latr
201  git clone https://github.com/ejbest/ejs.git ejs-pull &&  cp -R ./ejs-pull/*  ./ && rm -rf ejs-pull
202  ls
203  l
204  ls
205  pwd
206  cd /var/
207  ls
208  history
209  pwd
210  cd www/
211  ls
212  cd html/
213  ls
214  git clone https://github.com/ejbest/ejs.git ejs-pull &&  cp -R ./ejs-pull/*  ./ && rm -rf ejs-pull
215  pw
216  pwd
217  ls
218  ls -latr
219  ls blog/
220  cat index.html
221  owd
222  pwd
223  ls
224  rm index.html
225  rm css/ejs.css
226  git clone https://github.com/ejbest/ejs.git ejs-pull &&  cp -R ./ejs-pull/*  ./ && rm -rf ejs-pull
227  pwd
228  ls
229  mv index.html index.save
230  mv index.save index.html
231  ls
232  git clone https://github.com/ejbest/ejs.git ejs-pull &&  cp -R ./ejs-pull/*  ./ && rm -rf ejs-pull
233  ls
234  pwd
235  ls
236  mkdir test
237  cd test
238  git clone https://github.com/ejbest/ejs.git ejs-pull &&  cp -R ./ejs-pull/*  ./ && rm -rf ejs-pull
239  ls
240  ls ejs
241  ls
242  cd ..
243  rm -Rf test/
244  ls
245  rm -Rf ejs
246  git clone https://github.com/ejbest/ejs.git ejs-pull &&  cp -R ./ejs-pull/*  ./ && rm -rf ejs-pull
247  rm -Rf css/
248  ls
249  rm ejs.css
250  ls
251  git clone https://github.com/ejbest/ejs.git ejs-pull &&  cp -R ./ejs-pull/*  ./ && rm -rf ejs-pull
252  ls css
253  rm -Rf css
254  rm -Rf images/
255  pwd
256  cd ..
257  ls
258  cd ..
259  sudo find / -name index.html
260  sudo find / -name ejs.css
261  rm -Rf /tmp/test-pull/
262  rm -Rf /tmp/test/
263  sudo find / -name ejs.css
264  rm -Rf /tmp/test1/
265  sudo find / -name ocean.png
266  rm /var/www/html/ocean.png
267  ifconfig
268  hostname -i
269  sudo find / -name ocean.png
270  pwd
271  cd /var/
272  ls
273  cd www
274  ls
275  cd html
276  ls
277  cp test/index.html .
278  cd css
279  ls
280  cp ../test/css/ejs.css .
281  apache2 -v
282  cd ..
283  apache2 -v
284  pwd
285  lpwd
286  ls
287  ls css
288  sudo find / -name ejs.css
289  pwd
290  ls -latr
291  clear
292  ls -latr
293  ls test
294  ls test -latr
295  clear
296  ls -latr
297  ls css
298  cat css/ejs.css
299  cat css/ejs.css | more
300  cd css
301  checksum ejs.css
302  sudo apt install checksum
303  ls -latr
304  cp ../test/css/ejs.css .
305  cp -v ../test/css/ejs.css .
306  pwd
307  ls
308  ls -latr
309  rm ejs.css
310  ls
311  cp -v ../test/css/ejs.css .
312  ls
313  ls -latr
314  vi ejs.css
315  pwd
316  cd .
317  cd ..
318  history git
319  history | grep git
320  clear
321  git clone https://github.com/ejbest/ejs.git ejs-pull &&  cp -R ./ejs-pull/*  ./ && rm -rf ejs-pull
322  ls -latr
323  time
324  date
325  cd /vol1/docker
326  cd /vol1/dockerMySql/
327  lks
328  ls
329  ls -latr
330  cat readme-docker-mysql
331  ls
332  cat readme-docker-mysql
333  pwd
334  docker ps
335  sudo su
336  sudo apt-get install python-mysqldb
337  pwd
338  cd /var/www/html
339  ls
340  cat start_mac_django.sh
341  gmail-run
342  sudo find / -name index.html -mtime 1
343  sudo find / -name index.html -mtime -1
344  cd /var/www/html
345  vi index.html
346  ls
347  ls -latr
348  git clone https://github.com/ejbest/ejs.git ejs-pull &&  cp -R ./ejs-pull/*  ./ && rm -rf ejs-pull
349  ls -latr
350  cat index.html
351  pwd
352  ls -latr
353  cd zzz
354  s
355  ;l
356  ls
357  cd ..
358  mkdir test
359  cd test
360  pwd
361  git clone https://github.com/ejbest/ejs.git ejs-pull &&  cp -R ./ejs-pull/*  ./ && rm -rf ejs-pull
362  ls
363  sudo yum update
364  sudo apt update
365  sudo apt upgrade
366  cd ..
367  clear
368  less index.html
369  git clone https://github.com/ejbest/ejs.git ejs-pull &&  cp -R ./ejs-pull/*  ./ && rm -rf ejs-pull
370  docker inspect mysql | grep -w 'IPAddress' | head -1
371  sudo docker inspect mysql | grep -w 'IPAddress' | head -1
372  ls
373  vi start_aws_django.sh
374  cp start_aws_django.sh start_docker_django.sh
375  cat start_mac_django.sh
376  ls
377  cat start_docker_django.sh
378  vi start_docker_django.sh
379  bash start_docker_django.sh
380  clear
381  ls
382  cp start_docker_django.sh ubuntu_docker_django_start.sh
383  vi ubuntu_docker_django_start.sh
384  bash ubuntu_docker_django_start.sh
385  vi ubuntu_docker_django_start.sh
386  bash ubuntu_docker_django_start.sh
387  sudo bash ubuntu_docker_django_start.sh
388  pwd
389  cd /tmp
390  ls
391  mkdir ejs
392  cd ejs
393  git clone https://github.com/sunny2309/decryption_project/ejs.git
394  git clone https://github.com/sunny2309/decryption_project.git
395  ls
396  cd decryption_project/
397  ls
398  cd ejs
399  ls
400  ls -latr
401  cat start_aws_django.sh
402  mv start_aws_django.sh start_aws_ubuntu_django.sh
403  bash start_aws_ubuntu_django.sh
404  ls *.sh
405  cat start_aws_ubuntu_django.sh
406  x
407  clear
408  cd /tmp
409  ls -latr
410  rm -Rf ejs/
411  history | grep clone
412  git clone https://ejbest@bitbucket.org/ejbest/ejs.git
413  cd ejs
414  cp index.html /var/html/www
415  sudo cp index.html /var/html/www
416  pwd
417  ls
418  sudo cp index.html /var/html/www/*
419  sudo cp index.html /var/html/*
420  ls
421  cat index.html
422  sudo cp index.html /var/html/www
423  sudo cp index.html /var/html/www/*
424  pwd
425  cd /var/html/www
426  ls
427  sudo su
428  history
